<svg xmlns="http://www.w3.org/2000/svg" viewBox="1387.94 7391.516 293.424 280.063">
  <defs>
    <style>
      .cls-1, .cls-2 {
        fill: #fff;
      }

      .cls-1, .cls-3 {
        stroke: #0b1b34;
        stroke-width: 2px;
      }

      .cls-3 {
        fill: #ff5050;
      }

      .cls-4 {
        fill: #0b1b34;
      }
    </style>
  </defs>
  <g id="group-54" transform="translate(-40 6933)">
    <g id="group-53" transform="translate(65)">
      <g id="group-24" transform="translate(1577.946 514.4)">
        <path id="path" class="cls-1" d="M-249.046,580.223c-2.442-15.271-15.525-28.037-28.463-33.312-1-1.4.145-2.869,1.017-3.686q.381-.3.754-.626h0a25.349,25.349,0,0,0,8.244-17.686,8.062,8.062,0,0,0,1.816-2.379c1.435-2.769,1.144-5.765-.635-6.682a2.78,2.78,0,0,0-2.152-.1c-2.66-9.606-10.287-16.551-19.284-16.551s-16.715,7.018-19.33,16.7a2.933,2.933,0,0,0-2.551-.045c-1.816.908-2.07,3.913-.636,6.682a7.781,7.781,0,0,0,2.3,2.724,25.115,25.115,0,0,0,8.916,17.9h0l.191.145c.772.617,3.178,2.869-.154,4.939l-.908.509h0c-12.493,6.746-24.741,18.857-25.086,34.764-.272,12.1,2.252,35.136,8.444,44.969h0l.227.372a51.058,51.058,0,0,1,1.689,5.112h0a10.823,10.823,0,0,0,2.224,4.022c3.341,3.85,8.607,4.757,11.758,2.016s2.987-8.071-.354-11.921a9.878,9.878,0,0,0-7.654-3.632c-4.331-5.62-6.21-24.514-6.038-32.349.2-9,1.117-19.974,10.341-25.749-4.185,13.9-4.04,28.545-4.185,39.34,0,.091.436,8.653,1.416,15.072a6.021,6.021,0,0,0,.717.354l1.453-6.555h35.581a18.122,18.122,0,0,1-1.543,1.335l3.777,7.935c.309-.145,2.46-6.927,5.448-9.279l-.508-7.472c-.763-9.079-2.533-24.7-6.355-38.133l-.045-.164-1.752-4.757c8.707,5.111,10.9,17.632,12.284,26.066,1.153,7.2,1.816,23.4-.908,30.524a9.86,9.86,0,0,0-7.627,3.7c-3.287,3.9-3.359,9.242-.173,11.93s8.444,1.707,11.721-2.2a10.741,10.741,0,0,0,2.252-4.4h0a9.384,9.384,0,0,0,.227-1.444,27.6,27.6,0,0,1,1.316-4.957V623.2C-246.5,613.153-247.14,592.135-249.046,580.223Z" transform="translate(325.032 -499.2)"/>
        <path id="path-2" data-name="path" class="cls-2" d="M-301.48,733.74" transform="translate(322.863 -520.797)"/>
        <path id="path-3" data-name="path" class="cls-1" d="M-267.955,573.907l-.045-.163-1.761-4.766c3.632,2.115,6.083,5.5,7.872,9.333l9.515-4.712a50.508,50.508,0,0,0-22.843-21.118c-3.214,3.568-7.263,5.684-11.576,5.684-4.2,0-8.08-1.979-11.24-5.32-.118.082-.227.172-.363.254l-.908.508h0c-7.645,4.122-15.19,10.259-19.974,18.031l8.226,8.062a19.3,19.3,0,0,1,7.318-8.416c-4.195,13.928-4.049,28.609-4.195,39.431,0,.064.209,4.195.663,8.861h46.3l-.508-7.454C-262.353,603.078-264.133,587.371-267.955,573.907Z" transform="translate(324.502 -504.106)"/>
        <path id="path-4" data-name="path" class="cls-3" d="M29.607,219.609H41.319l2.125-74.059h-.173l4.748,74.477,10.459.844,6.537-93.734L18.63,126.92Z" transform="translate(-1.696 -11.696)"/>
        <path id="path-83" class="cls-3" d="M-1602.945-7433.589l.807-13.811h11.349s3.854,3.184,7.568,6.7c6.631,3.092,15.909,8.508-.343,8.554q-.325,0-.66,0A180.9,180.9,0,0,1-1602.945-7433.589Z" transform="translate(1648.162 7654.896)"/>
        <rect id="rectangle" class="cls-2" width="1.707" height="7.844" rx="0.853" transform="translate(60.969 207.097) rotate(60)"/>
        <rect id="rectangle-2" data-name="rectangle" class="cls-2" width="1.707" height="7.844" rx="0.853" transform="translate(63.712 208.927) rotate(60)"/>
        <rect id="rectangle-3" data-name="rectangle" class="cls-2" width="1.707" height="7.844" rx="0.853" transform="translate(66.294 210.719) rotate(60)"/>
        <path id="path-82" class="cls-3" d="M-1592.707-7432.17l-.022.023c-24.132.284,1.869-10.057,3.315-10.625,2.97-2.6,5.5-4.626,5.5-4.626h11.685l.835,13.809a191.926,191.926,0,0,1-19.315,1.456C-1591.406-7432.134-1592.076-7432.146-1592.707-7432.17Z" transform="translate(1611.825 7655.313)"/>
        <rect id="rectangle-4" data-name="rectangle" class="cls-2" width="1.707" height="7.844" rx="0.853" transform="translate(17.673 213.621) rotate(-60)"/>
        <rect id="rectangle-5" data-name="rectangle" class="cls-2" width="1.707" height="7.844" rx="0.853" transform="translate(20.415 211.783) rotate(-60)"/>
        <rect id="rectangle-6" data-name="rectangle" class="cls-2" width="1.707" height="7.844" rx="0.853" transform="translate(22.993 209.998) rotate(-60)"/>
      </g>
      <g id="group-24-2" data-name="group-24" transform="translate(1363.946 514.4)">
        <path id="path-5" data-name="path" class="cls-1" d="M-249.046,580.223c-2.442-15.271-15.525-28.037-28.463-33.312-1-1.4.145-2.869,1.017-3.686q.381-.3.754-.626h0a25.349,25.349,0,0,0,8.244-17.686,8.062,8.062,0,0,0,1.816-2.379c1.435-2.769,1.144-5.765-.635-6.682a2.78,2.78,0,0,0-2.152-.1c-2.66-9.606-10.287-16.551-19.284-16.551s-16.715,7.018-19.33,16.7a2.933,2.933,0,0,0-2.551-.045c-1.816.908-2.07,3.913-.636,6.682a7.781,7.781,0,0,0,2.3,2.724,25.115,25.115,0,0,0,8.916,17.9h0l.191.145c.772.617,3.178,2.869-.154,4.939l-.908.509h0c-12.493,6.746-24.741,18.857-25.086,34.764-.272,12.1,2.252,35.136,8.444,44.969h0l.227.372a51.058,51.058,0,0,1,1.689,5.112h0a10.823,10.823,0,0,0,2.224,4.022c3.341,3.85,8.607,4.757,11.758,2.016s2.987-8.071-.354-11.921a9.878,9.878,0,0,0-7.654-3.632c-4.331-5.62-6.21-24.514-6.038-32.349.2-9,1.117-19.974,10.341-25.749-4.185,13.9-4.04,28.545-4.185,39.34,0,.091.436,8.653,1.416,15.072a6.021,6.021,0,0,0,.717.354l1.453-6.555h35.581a18.122,18.122,0,0,1-1.543,1.335l3.777,7.935c.309-.145,2.46-6.927,5.448-9.279l-.508-7.472c-.763-9.079-2.533-24.7-6.355-38.133l-.045-.164-1.752-4.757c8.707,5.111,10.9,17.632,12.284,26.066,1.153,7.2,1.816,23.4-.908,30.524a9.86,9.86,0,0,0-7.627,3.7c-3.287,3.9-3.359,9.242-.173,11.93s8.444,1.707,11.721-2.2a10.741,10.741,0,0,0,2.252-4.4h0a9.384,9.384,0,0,0,.227-1.444,27.6,27.6,0,0,1,1.316-4.957V623.2C-246.5,613.153-247.14,592.135-249.046,580.223Z" transform="translate(325.032 -499.2)"/>
        <path id="path-6" data-name="path" class="cls-2" d="M-301.48,733.74" transform="translate(322.863 -520.797)"/>
        <path id="path-7" data-name="path" class="cls-1" d="M-267.955,573.907l-.045-.163-1.761-4.766c3.632,2.115,6.083,5.5,7.872,9.333l9.515-4.712a50.508,50.508,0,0,0-22.843-21.118c-3.214,3.568-7.263,5.684-11.576,5.684-4.2,0-8.08-1.979-11.24-5.32-.118.082-.227.172-.363.254l-.908.508h0c-7.645,4.122-15.19,10.259-19.974,18.031l8.226,8.062a19.3,19.3,0,0,1,7.318-8.416c-4.195,13.928-4.049,28.609-4.195,39.431,0,.064.209,4.195.663,8.861h46.3l-.508-7.454C-262.353,603.078-264.133,587.371-267.955,573.907Z" transform="translate(324.502 -504.106)"/>
        <path id="path-8" data-name="path" class="cls-3" d="M29.607,219.609H41.319l2.125-74.059h-.173l4.748,74.477,10.459.844,6.537-93.734L18.63,126.92Z" transform="translate(-1.696 -11.696)"/>
        <path id="path-79" class="cls-3" d="M-1388.946-7433.589l.809-13.811h11.349s3.855,3.185,7.57,6.707c6.631,3.092,15.908,8.507-.347,8.552q-.325,0-.659,0A180.9,180.9,0,0,1-1388.946-7433.589Z" transform="translate(1434.162 7654.896)"/>
        <rect id="rectangle-7" data-name="rectangle" class="cls-2" width="1.707" height="7.844" rx="0.853" transform="translate(59.969 207.097) rotate(60)"/>
        <rect id="rectangle-8" data-name="rectangle" class="cls-2" width="1.707" height="7.844" rx="0.853" transform="translate(62.712 208.927) rotate(60)"/>
        <rect id="rectangle-9" data-name="rectangle" class="cls-2" width="1.707" height="7.844" rx="0.853" transform="translate(65.294 210.719) rotate(60)"/>
        <path id="path-80" class="cls-3" d="M-1378.708-7432.17l-.022.023c-24.149.284,1.9-10.072,3.318-10.626,2.969-2.6,5.5-4.625,5.5-4.625h11.685l.835,13.809a191.928,191.928,0,0,1-19.316,1.456C-1377.407-7432.134-1378.077-7432.146-1378.708-7432.17Z" transform="translate(1397.825 7655.313)"/>
        <rect id="rectangle-10" data-name="rectangle" class="cls-2" width="1.707" height="7.844" rx="0.853" transform="translate(18.673 212.621) rotate(-60)"/>
        <rect id="rectangle-11" data-name="rectangle" class="cls-2" width="1.707" height="7.844" rx="0.853" transform="translate(21.415 210.783) rotate(-60)"/>
        <rect id="rectangle-12" data-name="rectangle" class="cls-2" width="1.707" height="7.844" rx="0.853" transform="translate(23.993 208.998) rotate(-60)"/>
      </g>
      <g id="group-26" transform="translate(1462.845 458.516)">
        <g id="group-24-3" data-name="group-24" transform="translate(0 10.122)">
          <path id="path-9" data-name="path" class="cls-1" d="M-233.466,596.836c-2.943-18.4-18.709-33.785-34.3-40.142-1.2-1.685.175-3.457,1.225-4.442q.459-.361.908-.755h0a30.547,30.547,0,0,0,9.934-21.313,9.715,9.715,0,0,0,2.188-2.867c1.729-3.337,1.379-6.947-.766-8.052a3.35,3.35,0,0,0-2.593-.12c-3.206-11.575-12.4-19.945-23.238-19.945s-20.142,8.457-23.293,20.12a3.535,3.535,0,0,0-3.074-.055c-2.188,1.094-2.495,4.716-.766,8.052a9.376,9.376,0,0,0,2.768,3.282c.645,8.993,4.759,16.805,10.744,21.575h0l.23.175c.93.744,3.829,3.457-.186,5.952l-1.094.613h0c-15.055,8.129-29.814,22.724-30.23,41.892-.328,14.584,2.713,42.341,10.175,54.19h0l.273.448a61.53,61.53,0,0,1,2.035,6.16h0a13.042,13.042,0,0,0,2.68,4.847c4.026,4.639,10.372,5.733,14.168,2.429s3.6-9.726-.427-14.365a11.9,11.9,0,0,0-9.223-4.376c-5.219-6.772-7.483-29.54-7.276-38.982.241-10.842,1.346-24.07,12.462-31.028-5.044,16.75-4.869,34.4-5.044,47.407,0,.109.525,10.427,1.707,18.162a7.243,7.243,0,0,0,.864.427l1.75-7.9h42.877a21.852,21.852,0,0,1-1.86,1.608l4.551,9.562c.372-.175,2.965-8.348,6.565-11.181l-.613-9c-.919-10.941-3.052-29.77-7.659-45.951l-.055-.2-2.112-5.733c10.492,6.16,13.129,21.247,14.8,31.411,1.39,8.676,2.188,28.194-1.094,36.783a11.881,11.881,0,0,0-9.19,4.464c-3.961,4.7-4.048,11.138-.208,14.376s10.175,2.057,14.125-2.648a12.943,12.943,0,0,0,2.713-5.306h0a11.306,11.306,0,0,0,.274-1.74,33.259,33.259,0,0,1,1.586-5.974v-.066C-230.4,636.519-231.168,611.19-233.466,596.836Z" transform="translate(325.032 -499.2)"/>
          <path id="path-10" data-name="path" class="cls-2" d="M-301.48,733.74" transform="translate(327.248 -477.133)"/>
          <path id="path-11" data-name="path" class="cls-1" d="M-257.431,578.3l-.055-.2-2.122-5.744c4.376,2.549,7.33,6.63,9.486,11.247l11.466-5.678a60.864,60.864,0,0,0-27.527-25.448c-3.873,4.3-8.753,6.849-13.95,6.849-5.066,0-9.737-2.385-13.545-6.411-.142.1-.273.208-.438.306l-1.094.613h0c-9.212,4.967-18.3,12.363-24.07,21.728l9.912,9.716a23.261,23.261,0,0,1,8.818-10.142c-5.055,16.783-4.88,34.475-5.055,47.516,0,.077.252,5.055.8,10.678h55.8l-.613-8.982C-250.681,613.453-252.825,594.526-257.431,578.3Z" transform="translate(325.573 -494.187)"/>
          <path id="path-12" data-name="path" class="cls-3" d="M31.857,238.615H45.971l2.56-89.245h-.208l5.722,89.748,12.6,1.018,7.877-112.953-55.9-.263Z" transform="translate(1.777 11.93)"/>
          <path id="path-13" data-name="path" class="cls-3" d="M-260.58,727.74h-13.676l-.974,16.641s34.672,4.541,30.766-1.007S-260.58,727.74-260.58,727.74Z" transform="translate(329.717 -477.698)"/>
          <path id="path-14" data-name="path" class="cls-3" d="M-258.88,732.81s33.982,13.184,4.07,12.833" transform="translate(331.256 -477.221)"/>
          <rect id="rectangle-13" data-name="rectangle" class="cls-2" width="2.057" height="9.453" rx="0.94" transform="translate(73.061 249.766) rotate(60)"/>
          <rect id="rectangle-14" data-name="rectangle" class="cls-2" width="2.057" height="9.453" rx="0.94" transform="translate(76.365 251.971) rotate(60)"/>
          <rect id="rectangle-15" data-name="rectangle" class="cls-2" width="2.057" height="9.453" rx="0.94" transform="translate(79.477 254.132) rotate(60)"/>
          <path id="path-81" class="cls-3" d="M-1475.507-7383.286l-.027.029c-29.091.341,2.276-12.129,4-12.806,3.578-3.138,6.627-5.575,6.627-5.575h14.08l1.007,16.64a231.23,231.23,0,0,1-23.28,1.756C-1473.942-7383.242-1474.747-7383.256-1475.507-7383.286Z" transform="translate(1498.545 7652.183)"/>
          <rect id="rectangle-16" data-name="rectangle" class="cls-2" width="2.057" height="9.453" rx="0.94" transform="translate(21.706 257.424) rotate(-60)"/>
          <rect id="rectangle-17" data-name="rectangle" class="cls-2" width="2.057" height="9.453" rx="0.94" transform="translate(25.011 255.208) rotate(-60)"/>
          <rect id="rectangle-18" data-name="rectangle" class="cls-2" width="2.057" height="9.453" rx="0.94" transform="translate(28.117 253.057) rotate(-60)"/>
        </g>
        <path id="path-17" class="cls-4" d="M-305.117,519.808s-3.6-10.389,1.25-18.2c0,0,2.694,4.58,6.466,0s7.274-20.207,32.87-8.352c0,0-5.119,5.927-2.155,8.352,0,0,12.372,7.221,7.4,18.03,0,0-9.387-20.336-21.328-15.271S-287.777,497.327-305.117,519.808Z" transform="translate(326.758 -488.902)"/>
      </g>
    </g>
  </g>
</svg>
