<?xml version="1.0" encoding="utf-8"?>
<!-- Generator: Adobe Illustrator 19.2.1, SVG Export Plug-In . SVG Version: 6.00 Build 0)  -->
<svg version="1.1" id="Layer_1" xmlns="http://www.w3.org/2000/svg" xmlns:xlink="http://www.w3.org/1999/xlink" x="0px" y="0px"
	 viewBox="0 0 187.985 42.946" enable-background="new 0 0 187.985 42.946" xml:space="preserve">
<g id="group-69" transform="translate(71 5702)">
	<g id="group">
		<g id="group-2">
			<path id="path" fill="#D00031" d="M-5.181-5696.165l-6.3,0.467c-4.141-3.993-9.654-6.248-15.406-6.302
				c-7.39-0.014-14.232,3.896-17.972,10.27l0,0c-0.467,0.7-0.7,1.4-1.167,2.1c-1.948-2.659-5.109-4.152-8.4-3.968l0,0
				c-0.467,0-1.167,0.233-1.634,0.233c-4.203,0.701-14.94,3.265-14.94,3.265s8.869,12.841,10.5,14.241
				c2.065,1.769,4.765,2.612,7.469,2.334c-3.034,7.469-5.835,14.471-5.835,14.471s32.91,0,37.111-1.4
				c9.308-2.348,15.842-10.706,15.874-20.306c-0.023-2.802-0.577-5.574-1.634-8.169L-5.181-5696.165z M-25.72-5665.589
				c-8.892,0-16.1-7.208-16.1-16.1s7.208-16.1,16.1-16.1s16.1,7.208,16.1,16.1l0,0C-9.64-5672.806-16.837-5665.609-25.72-5665.589z"
				/>
		</g>
		<text transform="matrix(1 0 0 1 6.643 -5672.3232)" fill="#0B1B34" font-family="'Montserrat-Bold'" font-size="27px">JD</text>
		<text transform="matrix(1 0 0 1 50.887 -5675.6528)" fill="#0B1B34" font-family="'Montserrat-Regular'" font-size="11px">SOLUTIONS</text>
	</g>
	<circle id="ellipse" fill="#D00031" cx="-21.752" cy="-5684.728" r="4.201"/>
</g>
</svg>
